code	framesize	framematerial	lens	packagetype	range_type	range_from	range_to	package	type_default	under18
2377	l	metal	BIF	opt	sph	-6.75	-5.00	J		
2376	l	metal	BIF	opt	sph	2.75	5.00	J		
2375	l	metal	BIF	opt	cyl	-5.75	-2.50	J		
2374	l	metal	BIF	opt	cyl	2.50	4.00	J		
2373	l	metal	BIF	opt	pwr	-6.75	3.00	J		
2372	l	metal	BIF	sun	sph	-6.75	-5.00	JI		
2371	l	metal	BIF	sun	sph	2.75	5.00	JI		
2370	l	metal	BIF	sun	cyl	-5.75	-2.50	JI		
2369	l	metal	BIF	sun	cyl	2.50	4.00	JI		
2368	l	metal	BIF	sun	pwr	-6.75	3.00	JI		
2367	l	metal	BIF	pol	sph	-6.75	-5.00	M		
2366	l	metal	BIF	pol	sph	2.75	5.00	M		
2365	l	metal	BIF	pol	cyl	-5.75	-2.50	M		
2364	l	metal	BIF	pol	cyl	2.50	4.00	M		
2363	l	metal	BIF	pol	pwr	-6.75	3.00	M		
2362	l	metal	PROG	opt	sph	-6.75	-5.00	K		
2361	l	metal	PROG	opt	sph	2.75	5.00	K		
2360	l	metal	PROG	opt	cyl	-5.75	-2.50	K		
2359	l	metal	PROG	opt	cyl	2.50	4.00	K		
2358	l	metal	PROG	opt	pwr	-6.75	3.00	K		
2357	l	metal	PROG	sun	sph	-6.75	-5.00	KI		
2356	l	metal	PROG	sun	sph	2.75	5.00	KI		
2355	l	metal	PROG	sun	cyl	-5.75	-2.50	KI		
2354	l	metal	PROG	sun	cyl	2.50	4.00	KI		
2353	l	metal	PROG	sun	pwr	-6.75	3.00	KI		
2352	l	metal	PROG	pol	sph	-6.75	-5.00	N		
2351	l	metal	PROG	pol	sph	2.75	5.00	N		
2350	l	metal	PROG	pol	cyl	-5.75	-2.50	N		
1100	s	Rimless	PROGE	tran		0.00	0.00	KTC	1	
1099	s	Rimless	PROGE	sun		0.00	0.00	VI	1	
1098	s	Rimless	PROGE	opt		0.00	0.00	V	1	
1097	s	Rimless	PROG	tran		0.00	0.00	O	1	
1096	s	Rimless	PROG	pol		0.00	0.00	N	1	
1095	s	Rimless	PROG	sun		0.00	0.00	KI	1	
1094	s	Rimless	PROG	opt		0.00	0.00	K	1	
1092	s	Rimless	BIF	pol		0.00	0.00	M	1	
1091	s	Rimless	BIF	sun		0.00	0.00	JI	1	
1090	s	Rimless	BIF	opt		0.00	0.00	J	1	
1089	s	Rimless	SVF	tran		0.00	0.00	H	1	
1088	s	Rimless	SVF	pol		0.00	0.00	F	1	
1087	s	Rimless	SVF	sun		0.00	0.00	I	1	
1086	s	Rimless	SVF	opt		0.00	0.00	A	1	
1085	s	Rimless	PROGE	tran	pwr	-20.00	4.25	RT		
1084	s	Rimless	PROGE	tran	cyl	4.25	8.00	RT		
1083	s	Rimless	PROGE	tran	cyl	-8.00	-5.25	RT		
1082	s	Rimless	PROGE	tran	sph	5.25	8.00	RT		
1081	s	Rimless	PROGE	tran	sph	-12.00	-7.00	RT		
1080	s	Rimless	PROGE	sun	pwr	-20.00	4.25	VI		
1079	s	Rimless	PROGE	sun	cyl	4.25	8.00	VI		
1078	s	Rimless	PROGE	sun	cyl	-8.00	-5.25	VI		
1077	s	Rimless	PROGE	sun	sph	5.25	8.00	VI		
1076	s	Rimless	PROGE	sun	sph	-12.00	-7.00	VI		
1075	s	Rimless	PROGE	opt	pwr	-20.00	4.25	V		
1074	s	Rimless	PROGE	opt	cyl	4.25	8.00	V		
1073	s	Rimless	PROGE	opt	cyl	-8.00	-5.25	V		
1072	s	Rimless	PROGE	opt	sph	5.25	8.00	V		
1071	s	Rimless	PROGE	opt	sph	-12.00	-7.00	V		
1070	s	Rimless	PROG	tran	pwr	-20.00	4.25	O		
1069	s	Rimless	PROG	tran	cyl	4.25	8.00	O		
1068	s	Rimless	PROG	tran	cyl	-8.00	-5.25	O		
1067	s	Rimless	PROG	tran	sph	5.25	8.00	O		
1066	s	Rimless	PROG	tran	sph	-12.00	-7.00	O		
1065	s	Rimless	PROG	pol	pwr	-20.00	4.25	N		
1064	s	Rimless	PROG	pol	cyl	4.25	8.00	N		
1063	s	Rimless	PROG	pol	cyl	-8.00	-5.25	N		
1062	s	Rimless	PROG	pol	sph	5.25	8.00	N		
1061	s	Rimless	PROG	pol	sph	-12.00	-7.00	N		
1060	s	Rimless	PROG	sun	pwr	-20.00	4.25	KI		
1059	s	Rimless	PROG	sun	cyl	4.25	8.00	KI		
1058	s	Rimless	PROG	sun	cyl	-8.00	-5.25	KI		
1057	s	Rimless	PROG	sun	sph	5.25	8.00	KI		
1056	s	Rimless	PROG	sun	sph	-12.00	-7.00	KI		
1055	s	Rimless	PROG	opt	pwr	-20.00	4.25	K		
1054	s	Rimless	PROG	opt	cyl	4.25	8.00	K		
1053	s	Rimless	PROG	opt	cyl	-8.00	-5.25	K		
1052	s	Rimless	PROG	opt	sph	5.25	8.00	K		
1051	s	Rimless	PROG	opt	sph	-12.00	-7.00	K		
1050	s	Rimless	BIF	pol	pwr	-20.00	4.25	M		
1049	s	Rimless	BIF	pol	cyl	4.25	8.00	M		
1048	s	Rimless	BIF	pol	cyl	-8.00	-5.25	M		
1047	s	Rimless	BIF	pol	sph	5.25	8.00	M		
1046	s	Rimless	BIF	pol	sph	-12.00	-7.00	M		
1045	s	Rimless	BIF	sun	pwr	-20.00	4.25	JI		
1044	s	Rimless	BIF	sun	cyl	4.25	8.00	JI		
1043	s	Rimless	BIF	sun	cyl	-8.00	-5.25	JI		
1042	s	Rimless	BIF	sun	sph	5.25	8.00	JI		
1041	s	Rimless	BIF	sun	sph	-12.00	-7.00	JI		
1040	s	Rimless	BIF	opt	pwr	-20.00	4.25	J		
1039	s	Rimless	BIF	opt	cyl	4.25	8.00	J		
1038	s	Rimless	BIF	opt	cyl	-8.00	-5.25	J		
1037	s	Rimless	BIF	opt	sph	5.25	8.00	J		
1036	s	Rimless	BIF	opt	sph	-12.00	-7.00	J		
1035	s	Rimless	SVF	tran	pwr	-20.00	4.25	H		
1034	s	Rimless	SVF	tran	cyl	4.25	8.00	H		
1033	s	Rimless	SVF	tran	cyl	-8.00	-5.25	H		
1032	s	Rimless	SVF	tran	sph	5.25	8.00	H		
1031	s	Rimless	SVF	tran	sph	-12.00	-7.00	H		
1030	s	Rimless	SVF	pol	pwr	-20.00	4.25	F		
1029	s	Rimless	SVF	pol	cyl	4.25	8.00	F		
1028	s	Rimless	SVF	pol	cyl	-8.00	-5.25	F		
1027	s	Rimless	SVF	pol	sph	5.25	8.00	F		
1026	s	Rimless	SVF	pol	sph	-12.00	-7.00	F		
1025	s	Rimless	SVF	sun	pwr	-20.00	4.25	D		
1024	s	Rimless	SVF	sun	cyl	4.25	8.00	D		
1023	s	Rimless	SVF	sun	cyl	-8.00	-5.25	D		
1022	s	Rimless	SVF	sun	sph	5.25	8.00	D		
1021	s	Rimless	SVF	sun	sph	-12.00	-7.00	D		
1020	s	Rimless	SVF	opt	pwr	-20.00	4.25	B		
1019	s	Rimless	SVF	opt	cyl	4.25	8.00	B		
1018	s	Rimless	SVF	opt	cyl	-8.00	-5.25	B		
1017	s	Rimless	SVF	opt	sph	5.25	8.00	B		
1016	s	Rimless	SVF	opt	sph	-12.00	-7.00	B		
1850	s	semi-rimless	PROG	opt	cyl	-5.75	-2.50	K		
1849	s	semi-rimless	PROG	opt	cyl	2.50	4.00	K		
1848	s	semi-rimless	PROG	opt	pwr	-6.75	3.00	K		
1847	s	semi-rimless	PROG	sun	sph	-6.75	-5.00	KI		
1846	s	semi-rimless	PROG	sun	sph	2.75	5.00	KI		
1845	s	semi-rimless	PROG	sun	cyl	-5.75	-2.50	KI		
1844	s	semi-rimless	PROG	sun	cyl	2.50	4.00	KI		
1843	s	semi-rimless	PROG	sun	pwr	-6.75	3.00	KI		
1842	s	semi-rimless	PROG	pol	sph	-6.75	-5.00	N		
1841	s	semi-rimless	PROG	pol	sph	2.75	5.00	N		
1840	s	semi-rimless	PROG	pol	cyl	-5.75	-2.50	N		
1839	s	semi-rimless	PROG	pol	cyl	2.50	4.00	N		
1838	s	semi-rimless	PROG	pol	pwr	-6.75	3.00	N		
1837	s	semi-rimless	PROG	tran	sph	-6.75	-5.00	O		
1836	s	semi-rimless	PROG	tran	sph	2.75	5.00	O		
1835	s	semi-rimless	PROG	tran	cyl	-5.75	-2.50	O		
1834	s	semi-rimless	PROG	tran	cyl	2.50	4.00	O		
1833	s	semi-rimless	PROG	tran	pwr	-6.75	3.00	O		
1832	s	semi-rimless	PROGE	opt	sph	-6.75	-5.00	V		
1831	s	semi-rimless	PROGE	opt	sph	2.75	5.00	V		
1830	s	semi-rimless	PROGE	opt	cyl	-5.75	-2.50	V		
1829	s	semi-rimless	PROGE	opt	cyl	2.50	4.00	V		
1828	s	semi-rimless	PROGE	opt	pwr	-6.75	3.00	V		
1827	s	semi-rimless	PROGE	sun	sph	-6.75	-5.00	VI		
1826	s	semi-rimless	PROGE	sun	sph	2.75	5.00	VI		
1825	s	semi-rimless	PROGE	sun	cyl	-5.75	-2.50	VI		
1824	s	semi-rimless	PROGE	sun	cyl	2.50	4.00	VI		
1823	s	semi-rimless	PROGE	sun	pwr	-6.75	3.00	VI		
1822	s	semi-rimless	PROGE	tran	sph	-6.75	-5.00	RT		
1821	s	semi-rimless	PROGE	tran	sph	2.75	5.00	RT		
1820	s	semi-rimless	PROGE	tran	cyl	-5.75	-2.50	RT		
1819	s	semi-rimless	PROGE	tran	cyl	2.50	4.00	RT		
1818	s	semi-rimless	PROGE	tran	pwr	-6.75	3.00	RT		
1817	s	semi-rimless	SVF	opt	sph	-12.00	-7.00	B		
1816	s	semi-rimless	SVF	opt	sph	5.25	8.00	B		
1815	s	semi-rimless	SVF	opt	cyl	-8.00	-5.25	B		
1814	s	semi-rimless	SVF	opt	cyl	4.25	8.00	B		
1813	s	semi-rimless	SVF	opt	pwr	-20.00	-7.75	B		
1812	s	semi-rimless	SVF	opt	pwr	5.25	20.00	B		
1811	s	semi-rimless	SVF	sun	sph	-12.00	-7.00	D		
1810	s	semi-rimless	SVF	sun	sph	5.25	8.00	D		
1809	s	semi-rimless	SVF	sun	cyl	-6.00	-8.00	D		
1808	s	semi-rimless	SVF	sun	cyl	4.25	8.00	D		
1807	s	semi-rimless	SVF	sun	pwr	-20.00	-7.75	D		
1806	s	semi-rimless	SVF	sun	pwr	5.25	20.00	D		
1805	s	semi-rimless	SVF	pol	sph	-12.00	-7.00	F		
1804	s	semi-rimless	SVF	pol	sph	5.25	8.00	F		
1803	s	semi-rimless	SVF	pol	cyl	-6.00	-8.00	F		
1802	s	semi-rimless	SVF	pol	cyl	4.25	8.00	F		
1801	s	semi-rimless	SVF	pol	pwr	-20.00	-7.75	F		
1800	s	semi-rimless	SVF	pol	pwr	5.25	20.00	F		
1799	s	semi-rimless	SVF	tran	sph	-12.00	-7.00	H		
1798	s	semi-rimless	SVF	tran	sph	5.25	8.00	H		
1797	s	semi-rimless	SVF	tran	cyl	-8.00	-5.25	H		
1796	s	semi-rimless	SVF	tran	cyl	4.25	8.00	H		
1795	s	semi-rimless	SVF	tran	pwr	-20.00	-7.75	H		
1794	s	semi-rimless	SVF	tran	pwr	5.25	20.00	H		
1793	s	semi-rimless	BIF	opt	sph	-12.00	-7.00	J		
1792	s	semi-rimless	BIF	opt	sph	5.25	8.00	J		
1791	s	semi-rimless	BIF	opt	cyl	-8.00	-5.25	J		
1790	s	semi-rimless	BIF	opt	cyl	4.25	8.00	J		
1789	s	semi-rimless	BIF	opt	pwr	-20.00	-7.75	J		
1788	s	semi-rimless	BIF	opt	pwr	5.25	20.00	J		
1787	s	semi-rimless	BIF	sun	sph	-12.00	-7.00	JI		
1786	s	semi-rimless	BIF	sun	sph	5.25	8.00	JI		
1785	s	semi-rimless	BIF	sun	cyl	-8.00	-5.25	JI		
1784	s	semi-rimless	BIF	sun	cyl	4.25	8.00	JI		
1783	s	semi-rimless	BIF	sun	pwr	-20.00	-7.75	JI		
1782	s	semi-rimless	BIF	sun	pwr	5.25	20.00	JI		
1781	s	semi-rimless	BIF	pol	sph	-12.00	-7.00	M		
1780	s	semi-rimless	BIF	pol	sph	5.25	8.00	M		
1779	s	semi-rimless	BIF	pol	cyl	-8.00	-5.25	M		
1778	s	semi-rimless	BIF	pol	cyl	4.25	8.00	M		
1777	s	semi-rimless	BIF	pol	pwr	-20.00	-7.75	M		
1776	s	semi-rimless	BIF	pol	pwr	5.25	20.00	M		
1775	s	semi-rimless	PROG	opt	sph	-12.00	-7.00	K		
1774	s	semi-rimless	PROG	opt	sph	5.25	8.00	K		
1773	s	semi-rimless	PROG	opt	cyl	-8.00	-5.25	K		
1772	s	semi-rimless	PROG	opt	cyl	4.25	8.00	K		
1771	s	semi-rimless	PROG	opt	pwr	-20.00	-7.75	K		
1770	s	semi-rimless	PROG	opt	pwr	5.25	20.00	K		
1769	s	semi-rimless	PROG	sun	sph	-12.00	-7.00	KI		
1768	s	semi-rimless	PROG	sun	sph	5.25	8.00	KI		
1767	s	semi-rimless	PROG	sun	cyl	-8.00	-5.25	KI		
1766	s	semi-rimless	PROG	sun	cyl	4.25	8.00	KI		
1765	s	semi-rimless	PROG	sun	pwr	-20.00	-7.75	KI		
1764	s	semi-rimless	PROG	sun	pwr	5.25	20.00	KI		
1763	s	semi-rimless	PROG	pol	sph	-12.00	-7.00	N		
1762	s	semi-rimless	PROG	pol	sph	5.25	8.00	N		
1761	s	semi-rimless	PROG	pol	cyl	-8.00	-5.25	N		
1760	s	semi-rimless	PROG	pol	cyl	4.25	8.00	N		
1759	s	semi-rimless	PROG	pol	pwr	-20.00	-7.75	N		
1758	s	semi-rimless	PROG	pol	pwr	5.25	20.00	N		
1757	s	semi-rimless	PROG	tran	sph	-12.00	-7.00	O		
1756	s	semi-rimless	PROG	tran	sph	5.25	8.00	O		
1755	s	semi-rimless	PROG	tran	cyl	-8.00	-5.25	O		
1754	s	semi-rimless	PROG	tran	cyl	4.25	8.00	O		
1753	s	semi-rimless	PROG	tran	pwr	-20.00	-7.75	O		
1752	s	semi-rimless	PROG	tran	pwr	5.25	20.00	O		
1751	s	semi-rimless	PROGE	opt	sph	-12.00	-7.00	V		
1750	s	semi-rimless	PROGE	opt	sph	5.25	8.00	V		
1749	s	semi-rimless	PROGE	opt	cyl	-8.00	-5.25	V		
1748	s	semi-rimless	PROGE	opt	cyl	4.25	8.00	V		
1747	s	semi-rimless	PROGE	opt	pwr	-20.00	-7.75	V		
1746	s	semi-rimless	PROGE	opt	pwr	5.25	20.00	V		
1745	s	semi-rimless	PROGE	sun	sph	-12.00	-7.00	VI		
1744	s	semi-rimless	PROGE	sun	sph	5.25	8.00	VI		
1743	s	semi-rimless	PROGE	sun	cyl	-8.00	-5.25	VI		
1742	s	semi-rimless	PROGE	sun	cyl	4.25	8.00	VI		
1741	s	semi-rimless	PROGE	sun	pwr	-20.00	-7.75	VI		
1740	s	semi-rimless	PROGE	sun	pwr	5.25	20.00	VI		
1739	s	semi-rimless	PROGE	tran	sph	-12.00	-7.00	RT		
1738	s	semi-rimless	PROGE	tran	sph	5.25	8.00	RT		
1737	s	semi-rimless	PROGE	tran	cyl	-8.00	-5.25	RT		
1736	s	semi-rimless	PROGE	tran	cyl	4.25	8.00	RT		
1735	s	semi-rimless	PROGE	tran	pwr	-20.00	-7.75	RT		
1734	s	semi-rimless	PROGE	tran	pwr	5.25	20.00	RT		
1733	s	semi-rimless	SVF	opt		0.00	0.00	A	1	
1732	s	semi-rimless	SVF	sun		0.00	0.00	C	1	
1731	s	semi-rimless	SVF	pol		0.00	0.00	E	1	
1730	s	semi-rimless	SVF	tran		0.00	0.00	G	1	
1729	s	semi-rimless	BIF	opt		0.00	0.00	J	1	
1728	s	semi-rimless	BIF	sun		0.00	0.00	JC	1	
1727	s	semi-rimless	BIF	pol		0.00	0.00	WP	1	
1726	s	semi-rimless	BIF	tran		0.00	0.00	WT	1	
1725	s	semi-rimless	PROG	opt		0.00	0.00	K	1	
1724	s	semi-rimless	PROG	sun		0.00	0.00	KC	1	
1723	s	semi-rimless	PROG	pol		0.00	0.00	KP	1	
1722	s	semi-rimless	PROG	tran		0.00	0.00	KT	1	
1721	s	semi-rimless	PROGE	opt		0.00	0.00	V	1	
1720	s	semi-rimless	PROGE	sun		0.00	0.00	VC	1	
1719	s	semi-rimless	PROGE	tran		0.00	0.00	ST	1	
2349	l	metal	PROG	pol	cyl	2.50	4.00	N		
2348	l	metal	PROG	pol	pwr	-6.75	3.00	N		
2347	l	metal	PROG	tran	sph	-6.75	-5.00	O		
2346	l	metal	PROG	tran	sph	2.75	5.00	O		
2345	l	metal	PROG	tran	cyl	-5.75	-2.50	O		
2344	l	metal	PROG	tran	cyl	2.50	4.00	O		
2343	l	metal	PROG	tran	pwr	-6.75	3.00	O		
2342	l	metal	PROGE	opt	sph	-6.75	-5.00	R		
2341	l	metal	PROGE	opt	sph	2.75	5.00	R		
2340	l	metal	PROGE	opt	cyl	-5.75	-2.50	R		
2339	l	metal	PROGE	opt	cyl	2.50	4.00	R		
2338	l	metal	PROGE	opt	pwr	-6.75	3.00	R		
2337	l	metal	PROGE	sun	sph	-6.75	-5.00	RI		
2336	l	metal	PROGE	sun	sph	2.75	5.00	RI		
2335	l	metal	PROGE	sun	cyl	-5.75	-2.50	RI		
2334	l	metal	PROGE	sun	cyl	2.50	4.00	RI		
2333	l	metal	PROGE	sun	pwr	-6.75	3.00	RI		
2331	l	metal	PROGE	tran	sph	2.75	5.00	RT		
2332	l	metal	PROGE	tran	sph	-6.75	-5.00	RT		
2330	l	metal	PROGE	tran	cyl	-5.75	-2.50	RT		
2329	l	metal	PROGE	tran	cyl	2.50	4.00	RT		
2328	l	metal	PROGE	tran	pwr	-6.75	3.00	RT		
2327	l	metal	SVF	opt	sph	-12.00	-7.00	B		
2326	l	metal	SVF	opt	sph	5.25	8.00	B		
2325	l	metal	SVF	opt	cyl	-8.00	-5.25	B		
2324	l	metal	SVF	opt	cyl	4.25	8.00	B		
2323	l	metal	SVF	opt	pwr	-20.00	-7.75	B		
2322	l	metal	SVF	opt	pwr	5.25	20.00	B		
2321	l	metal	SVF	sun	sph	-12.00	-7.00	D		
2320	l	metal	SVF	sun	sph	5.25	8.00	D		
2319	l	metal	SVF	sun	cyl	-6.00	-8.00	D		
2318	l	metal	SVF	sun	cyl	4.25	8.00	D		
2317	l	metal	SVF	sun	pwr	-20.00	-7.75	D		
2316	l	metal	SVF	sun	pwr	5.25	20.00	D		
2315	l	metal	SVF	pol	sph	-12.00	-7.00	F		
2314	l	metal	SVF	pol	sph	5.25	8.00	F		
2313	l	metal	SVF	pol	cyl	-6.00	-8.00	F		
2312	l	metal	SVF	pol	cyl	4.25	8.00	F		
2311	l	metal	SVF	pol	pwr	-20.00	-7.75	F		
2310	l	metal	SVF	pol	pwr	5.25	20.00	F		
2309	l	metal	SVF	tran	sph	-12.00	-7.00	H		
2308	l	metal	SVF	tran	sph	5.25	8.00	H		
2307	l	metal	SVF	tran	cyl	-8.00	-5.25	H		
2306	l	metal	SVF	tran	cyl	4.25	8.00	H		
2305	l	metal	SVF	tran	pwr	-20.00	-7.75	H		
2304	l	metal	SVF	tran	pwr	5.25	20.00	H		
2303	l	metal	BIF	opt	sph	-12.00	-7.00	J		
2302	l	metal	BIF	opt	sph	5.25	8.00	J		
2301	l	metal	BIF	opt	cyl	-8.00	-5.25	J		
2300	l	metal	BIF	opt	cyl	4.25	8.00	J		
2299	l	metal	BIF	opt	pwr	-20.00	-7.75	J		
2298	l	metal	BIF	opt	pwr	5.25	20.00	J		
2297	l	metal	BIF	sun	sph	-12.00	-7.00	JI		
2296	l	metal	BIF	sun	sph	5.25	8.00	JI		
2295	l	metal	BIF	sun	cyl	-8.00	-5.25	JI		
2294	l	metal	BIF	sun	cyl	4.25	8.00	JI		
2293	l	metal	BIF	sun	pwr	-20.00	-7.75	JI		
2292	l	metal	BIF	sun	pwr	5.25	20.00	JI		
2291	l	metal	BIF	pol	sph	-12.00	-7.00	M		
2290	l	metal	BIF	pol	sph	5.25	8.00	M		
2289	l	metal	BIF	pol	cyl	-8.00	-5.25	M		
2288	l	metal	BIF	pol	cyl	4.25	8.00	M		
2287	l	metal	BIF	pol	pwr	-20.00	-7.75	M		
2286	l	metal	BIF	pol	pwr	5.25	20.00	M		
2285	l	metal	PROG	opt	sph	-12.00	-7.00	K		
2283	l	metal	PROG	opt	cyl	-8.00	-5.25	K		
2284	l	metal	PROG	opt	sph	5.25	8.00	K		
2281	l	metal	PROG	opt	pwr	-20.00	-7.75	K		
2282	l	metal	PROG	opt	cyl	4.25	8.00	K		
2279	l	metal	PROG	sun	sph	-12.00	-7.00	KI		
2280	l	metal	PROG	opt	pwr	5.25	20.00	K		
2277	l	metal	PROG	sun	cyl	-8.00	-5.25	KI		
2278	l	metal	PROG	sun	sph	5.25	8.00	KI		
2275	l	metal	PROG	sun	pwr	-20.00	-7.75	KI		
2276	l	metal	PROG	sun	cyl	4.25	8.00	KI		
2274	l	metal	PROG	sun	pwr	5.25	20.00	KI		
2273	l	metal	PROG	pol	sph	-12.00	-7.00	N		
2272	l	metal	PROG	pol	sph	5.25	8.00	N		
2271	l	metal	PROG	pol	cyl	-8.00	-5.25	N		
2270	l	metal	PROG	pol	cyl	4.25	8.00	N		
2269	l	metal	PROG	pol	pwr	-20.00	-7.75	N		
2268	l	metal	PROG	pol	pwr	5.25	20.00	N		
2267	l	metal	PROG	tran	sph	-12.00	-7.00	O		
2266	l	metal	PROG	tran	sph	5.25	8.00	O		
2265	l	metal	PROG	tran	cyl	-8.00	-5.25	O		
2264	l	metal	PROG	tran	cyl	4.25	8.00	O		
2263	l	metal	PROG	tran	pwr	-20.00	-7.75	O		
2262	l	metal	PROG	tran	pwr	5.25	20.00	O		
2261	l	metal	PROGE	opt	sph	-12.00	-7.00	R		
2260	l	metal	PROGE	opt	sph	5.25	8.00	R		
2259	l	metal	PROGE	opt	cyl	-8.00	-5.25	R		
2258	l	metal	PROGE	opt	cyl	4.25	8.00	R		
2257	l	metal	PROGE	opt	pwr	-20.00	-7.75	R		
2256	l	metal	PROGE	opt	pwr	5.25	20.00	R		
2255	l	metal	PROGE	sun	sph	-12.00	-7.00	RI		
2254	l	metal	PROGE	sun	sph	5.25	8.00	RI		
2253	l	metal	PROGE	sun	cyl	-8.00	-5.25	RI		
2252	l	metal	PROGE	sun	cyl	4.25	8.00	RI		
2251	l	metal	PROGE	sun	pwr	-20.00	-7.75	RI		
2250	l	metal	PROGE	sun	pwr	5.25	20.00	RI		
2249	l	metal	PROGE	tran	sph	-12.00	-7.00	RT		
2248	l	metal	PROGE	tran	sph	5.25	8.00	RT		
2247	l	metal	PROGE	tran	cyl	-8.00	-5.25	RT		
2246	l	metal	PROGE	tran	cyl	4.25	8.00	RT		
2245	l	metal	PROGE	tran	pwr	-20.00	-7.75	RT		
2244	l	metal	PROGE	tran	pwr	5.25	20.00	RT		
2243	l	metal	SVF	opt		0.00	0.00	A	1	
2242	l	metal	SVF	sun		0.00	0.00	C	1	
2241	l	metal	SVF	pol		0.00	0.00	E	1	
2240	l	metal	SVF	tran		0.00	0.00	G	1	
2239	l	metal	BIF	opt		0.00	0.00	J	1	
2238	l	metal	BIF	sun		0.00	0.00	JC	1	
2237	l	metal	BIF	pol		0.00	0.00	WP	1	
2236	l	metal	BIF	tran		0.00	0.00	WT	1	
2235	l	metal	PROG	opt		0.00	0.00	K	1	
2234	l	metal	PROG	sun		0.00	0.00	KC	1	
2233	l	metal	PROG	pol		0.00	0.00	KP	1	
2232	l	metal	PROG	tran		0.00	0.00	KT	1	
2231	l	metal	PROGE	opt		0.00	0.00	R	1	
2230	l	metal	PROGE	sun		0.00	0.00	S	1	
2229	l	metal	PROGE	tran		0.00	0.00	ST	1	
2228	l	plastic	PROGE	tran		0.00	0.00	ST	1	
2227	l	plastic	PROGE	sun		0.00	0.00	S	1	
2226	l	plastic	PROGE	opt		0.00	0.00	R	1	
2225	l	plastic	PROG	tran		0.00	0.00	KT	1	
2224	l	plastic	PROG	pol		0.00	0.00	KP	1	
2223	l	plastic	PROG	sun		0.00	0.00	KC	1	
2222	l	plastic	PROG	opt		0.00	0.00	K	1	
2221	l	plastic	BIF	tran		0.00	0.00	WT	1	
2220	l	plastic	BIF	pol		0.00	0.00	WP	1	
2219	l	plastic	BIF	sun		0.00	0.00	JC	1	
2218	l	plastic	BIF	opt		0.00	0.00	J	1	
2217	l	plastic	SVF	tran		0.00	0.00	G	1	
2216	l	plastic	SVF	pol		0.00	0.00	E	1	
2215	l	plastic	SVF	sun		0.00	0.00	C	1	
2214	l	plastic	SVF	opt		0.00	0.00	A	1	
2213	l	plastic	PROGE	tran	pwr	5.25	20.00	RT		
2212	l	plastic	PROGE	tran	pwr	-20.00	-7.75	RT		
2211	l	plastic	PROGE	tran	cyl	4.25	8.00	RT		
2210	l	plastic	PROGE	tran	cyl	-8.00	-5.25	RT		
2209	l	plastic	PROGE	tran	sph	5.25	8.00	RT		
2208	l	plastic	PROGE	tran	sph	-12.00	-7.00	RT		
2207	l	plastic	PROGE	sun	pwr	5.25	20.00	RI		
2206	l	plastic	PROGE	sun	pwr	-20.00	-7.75	RI		
2205	l	plastic	PROGE	sun	cyl	4.25	8.00	RI		
2204	l	plastic	PROGE	sun	cyl	-8.00	-5.25	RI		
2203	l	plastic	PROGE	sun	sph	5.25	8.00	RI		
2202	l	plastic	PROGE	sun	sph	-12.00	-7.00	RI		
2201	l	plastic	PROGE	opt	pwr	5.25	20.00	R		
2200	l	plastic	PROGE	opt	pwr	-20.00	-7.75	R		
2199	l	plastic	PROGE	opt	cyl	4.25	8.00	R		
2198	l	plastic	PROGE	opt	cyl	-8.00	-5.25	R		
2197	l	plastic	PROGE	opt	sph	5.25	8.00	R		
2196	l	plastic	PROGE	opt	sph	-12.00	-7.00	R		
2194	l	plastic	PROG	tran	pwr	-20.00	-7.75	O		
2195	l	plastic	PROG	tran	pwr	5.25	20.00	O		
2193	l	plastic	PROG	tran	cyl	4.25	8.00	O		
2191	l	plastic	PROG	tran	sph	5.25	8.00	O		
2192	l	plastic	PROG	tran	cyl	-8.00	-5.25	O		
2190	l	plastic	PROG	tran	sph	-12.00	-7.00	O		
2188	l	plastic	PROG	pol	pwr	-20.00	-7.75	N		
2189	l	plastic	PROG	pol	pwr	5.25	20.00	N		
2187	l	plastic	PROG	pol	cyl	4.25	8.00	N		
2186	l	plastic	PROG	pol	cyl	-8.00	-5.25	N		
2185	l	plastic	PROG	pol	sph	5.25	8.00	N		
2184	l	plastic	PROG	pol	sph	-12.00	-7.00	N		
2183	l	plastic	PROG	sun	pwr	5.25	20.00	KI		
2182	l	plastic	PROG	sun	pwr	-20.00	-7.75	KI		
2181	l	plastic	PROG	sun	cyl	4.25	8.00	KI		
2180	l	plastic	PROG	sun	cyl	-8.00	-5.25	KI		
2179	l	plastic	PROG	sun	sph	5.25	8.00	KI		
2178	l	plastic	PROG	sun	sph	-12.00	-7.00	KI		
2177	l	plastic	PROG	opt	pwr	5.25	20.00	K		
2176	l	plastic	PROG	opt	pwr	-20.00	-7.75	K		
2175	l	plastic	PROG	opt	cyl	4.25	8.00	K		
2174	l	plastic	PROG	opt	cyl	-8.00	-5.25	K		
2173	l	plastic	PROG	opt	sph	5.25	8.00	K		
1505	s	plastic	PROG	sun	pwr	-6.75	3.00	KI		
1504	s	plastic	PROG	pol	sph	-6.75	-5.00	N		
1503	s	plastic	PROG	pol	sph	2.75	5.00	N		
1502	s	plastic	PROG	pol	cyl	-5.75	-2.50	N		
1501	s	plastic	PROG	pol	cyl	2.50	4.00	N		
1500	s	plastic	PROG	pol	pwr	-6.75	3.00	N		
1499	s	plastic	PROG	tran	sph	-6.75	-5.00	O		
1498	s	plastic	PROG	tran	sph	2.75	5.00	O		
1497	s	plastic	PROG	tran	cyl	-5.75	-2.50	O		
1496	s	plastic	PROG	tran	cyl	2.50	4.00	O		
1495	s	plastic	PROG	tran	pwr	-6.75	3.00	O		
1494	s	plastic	PROGE	opt	sph	-6.75	-5.00	V		
1493	s	plastic	PROGE	opt	sph	2.75	5.00	V		
1492	s	plastic	PROGE	opt	cyl	-5.75	-2.50	V		
1491	s	plastic	PROGE	opt	cyl	2.50	4.00	V		
1490	s	plastic	PROGE	opt	pwr	-6.75	3.00	V		
1489	s	plastic	PROGE	sun	sph	-6.75	-5.00	VI		
1488	s	plastic	PROGE	sun	sph	2.75	5.00	VI		
1487	s	plastic	PROGE	sun	cyl	-5.75	-2.50	VI		
1486	s	plastic	PROGE	sun	cyl	2.50	4.00	VI		
1485	s	plastic	PROGE	sun	pwr	-6.75	3.00	VI		
1484	s	plastic	PROGE	tran	sph	-6.75	-5.00	RT		
1483	s	plastic	PROGE	tran	sph	2.75	5.00	RT		
1482	s	plastic	PROGE	tran	cyl	-5.75	-2.50	RT		
1481	s	plastic	PROGE	tran	cyl	2.50	4.00	RT		
1480	s	plastic	PROGE	tran	pwr	-6.75	3.00	RT		
1479	s	plastic	SVF	opt	sph	-12.00	-7.00	B		
1478	s	plastic	SVF	opt	sph	5.25	8.00	B		
1477	s	plastic	SVF	opt	cyl	-8.00	-5.25	B		
1476	s	plastic	SVF	opt	cyl	4.25	8.00	B		
1475	s	plastic	SVF	opt	pwr	-20.00	-7.75	B		
1474	s	plastic	SVF	opt	pwr	5.25	20.00	B		
1473	s	plastic	SVF	sun	sph	-12.00	-7.00	D		
1472	s	plastic	SVF	sun	sph	5.25	8.00	D		
1471	s	plastic	SVF	sun	cyl	-6.00	-8.00	D		
1470	s	plastic	SVF	sun	cyl	4.25	8.00	D		
1469	s	plastic	SVF	sun	pwr	-20.00	-7.75	D		
1468	s	plastic	SVF	sun	pwr	5.25	20.00	D		
1467	s	plastic	SVF	pol	sph	-12.00	-7.00	F		
1466	s	plastic	SVF	pol	sph	5.25	8.00	F		
1465	s	plastic	SVF	pol	cyl	-6.00	-8.00	F		
1464	s	plastic	SVF	pol	cyl	4.25	8.00	F		
1463	s	plastic	SVF	pol	pwr	-20.00	-7.75	F		
1462	s	plastic	SVF	pol	pwr	5.25	20.00	F		
1461	s	plastic	SVF	tran	sph	-12.00	-7.00	H		
1460	s	plastic	SVF	tran	sph	5.25	8.00	H		
1459	s	plastic	SVF	tran	cyl	-8.00	-5.25	H		
1458	s	plastic	SVF	tran	cyl	4.25	8.00	H		
1457	s	plastic	SVF	tran	pwr	-20.00	-7.75	H		
1456	s	plastic	SVF	tran	pwr	5.25	20.00	H		
1455	s	plastic	BIF	opt	sph	-12.00	-7.00	J		
1454	s	plastic	BIF	opt	sph	5.25	8.00	J		
1453	s	plastic	BIF	opt	cyl	-8.00	-5.25	J		
1452	s	plastic	BIF	opt	cyl	4.25	8.00	J		
1451	s	plastic	BIF	opt	pwr	-20.00	-7.75	J		
1450	s	plastic	BIF	opt	pwr	5.25	20.00	J		
1449	s	plastic	BIF	sun	sph	-12.00	-7.00	JI		
1448	s	plastic	BIF	sun	sph	5.25	8.00	JI		
1447	s	plastic	BIF	sun	cyl	-8.00	-5.25	JI		
1446	s	plastic	BIF	sun	cyl	4.25	8.00	JI		
1445	s	plastic	BIF	sun	pwr	-20.00	-7.75	JI		
1444	s	plastic	BIF	sun	pwr	5.25	20.00	JI		
1443	s	plastic	BIF	pol	sph	-12.00	-7.00	M		
1442	s	plastic	BIF	pol	sph	5.25	8.00	M		
1441	s	plastic	BIF	pol	cyl	-8.00	-5.25	M		
1440	s	plastic	BIF	pol	cyl	4.25	8.00	M		
1439	s	plastic	BIF	pol	pwr	-20.00	-7.75	M		
1438	s	plastic	BIF	pol	pwr	5.25	20.00	M		
1437	s	plastic	PROG	opt	sph	-12.00	-7.00	K		
1436	s	plastic	PROG	opt	sph	5.25	8.00	K		
1435	s	plastic	PROG	opt	cyl	-8.00	-5.25	K		
1434	s	plastic	PROG	opt	cyl	4.25	8.00	K		
1433	s	plastic	PROG	opt	pwr	-20.00	-7.75	K		
1432	s	plastic	PROG	opt	pwr	5.25	20.00	K		
1431	s	plastic	PROG	sun	sph	-12.00	-7.00	KI		
1430	s	plastic	PROG	sun	sph	5.25	8.00	KI		
1429	s	plastic	PROG	sun	cyl	-8.00	-5.25	KI		
1428	s	plastic	PROG	sun	cyl	4.25	8.00	KI		
1427	s	plastic	PROG	sun	pwr	-20.00	-7.75	KI		
1426	s	plastic	PROG	sun	pwr	5.25	20.00	KI		
1425	s	plastic	PROG	pol	sph	-12.00	-7.00	N		
1424	s	plastic	PROG	pol	sph	5.25	8.00	N		
1423	s	plastic	PROG	pol	cyl	-8.00	-5.25	N		
1422	s	plastic	PROG	pol	cyl	4.25	8.00	N		
1421	s	plastic	PROG	pol	pwr	-20.00	-7.75	N		
1420	s	plastic	PROG	pol	pwr	5.25	20.00	N		
1419	s	plastic	PROG	tran	sph	-12.00	-7.00	O		
1418	s	plastic	PROG	tran	sph	5.25	8.00	O		
1417	s	plastic	PROG	tran	cyl	-8.00	-5.25	O		
1416	s	plastic	PROG	tran	cyl	4.25	8.00	O		
1415	s	plastic	PROG	tran	pwr	-20.00	-7.75	O		
1414	s	plastic	PROG	tran	pwr	5.25	20.00	O		
1413	s	plastic	PROGE	opt	sph	-12.00	-7.00	V		
1412	s	plastic	PROGE	opt	sph	5.25	8.00	V		
1411	s	plastic	PROGE	opt	cyl	-8.00	-5.25	V		
1410	s	plastic	PROGE	opt	cyl	4.25	8.00	V		
1409	s	plastic	PROGE	opt	pwr	-20.00	-7.75	V		
1408	s	plastic	PROGE	opt	pwr	5.25	20.00	V		
1407	s	plastic	PROGE	sun	sph	-12.00	-7.00	VI		
1406	s	plastic	PROGE	sun	sph	5.25	8.00	VI		
1405	s	plastic	PROGE	sun	cyl	-8.00	-5.25	VI		
1404	s	plastic	PROGE	sun	cyl	4.25	8.00	VI		
1403	s	plastic	PROGE	sun	pwr	-20.00	-7.75	VI		
1402	s	plastic	PROGE	sun	pwr	5.25	20.00	VI		
1401	s	plastic	PROGE	tran	sph	-12.00	-7.00	RT		
1400	s	plastic	PROGE	tran	sph	5.25	8.00	RT		
1399	s	plastic	PROGE	tran	cyl	-8.00	-5.25	RT		
1398	s	plastic	PROGE	tran	cyl	4.25	8.00	RT		
1397	s	plastic	PROGE	tran	pwr	-20.00	-7.75	RT		
1396	s	plastic	PROGE	tran	pwr	5.25	20.00	RT		
1395	s	plastic	SVF	opt		0.00	0.00	A	1	
1394	s	plastic	SVF	sun		0.00	0.00	C	1	
1393	s	plastic	SVF	pol		0.00	0.00	E	1	
1392	s	plastic	SVF	tran		0.00	0.00	G	1	
1391	s	plastic	BIF	opt		0.00	0.00	J	1	
1390	s	plastic	BIF	sun		0.00	0.00	JC	1	
1389	s	plastic	BIF	pol		0.00	0.00	WP	1	
1388	s	plastic	BIF	tran		0.00	0.00	WT	1	
1387	s	plastic	PROG	opt		0.00	0.00	K	1	
1386	s	plastic	PROG	sun		0.00	0.00	KC	1	
1385	s	plastic	PROG	pol		0.00	0.00	KP	1	
1384	s	plastic	PROG	tran		0.00	0.00	KT	1	
1383	s	plastic	PROGE	opt		0.00	0.00	V	1	
1382	s	plastic	PROGE	sun		0.00	0.00	VC	1	
1381	s	plastic	PROGE	tran		0.00	0.00	KTC	1	
2172	l	plastic	PROG	opt	sph	-12.00	-7.00	K		
2171	l	plastic	BIF	pol	pwr	5.25	20.00	M		
2170	l	plastic	BIF	pol	pwr	-20.00	-7.75	M		
2169	l	plastic	BIF	pol	cyl	4.25	8.00	M		
2168	l	plastic	BIF	pol	cyl	-8.00	-5.25	M		
2167	l	plastic	BIF	pol	sph	5.25	8.00	M		
2166	l	plastic	BIF	pol	sph	-12.00	-7.00	M		
2165	l	plastic	BIF	sun	pwr	5.25	20.00	JI		
2164	l	plastic	BIF	sun	pwr	-20.00	-7.75	JI		
2163	l	plastic	BIF	sun	cyl	4.25	8.00	JI		
2162	l	plastic	BIF	sun	cyl	-8.00	-5.25	JI		
2161	l	plastic	BIF	sun	sph	5.25	8.00	JI		
2160	l	plastic	BIF	sun	sph	-12.00	-7.00	JI		
2159	l	plastic	BIF	opt	pwr	5.25	20.00	J		
2158	l	plastic	BIF	opt	pwr	-20.00	-7.75	J		
2157	l	plastic	BIF	opt	cyl	4.25	8.00	J		
2156	l	plastic	BIF	opt	cyl	-8.00	-5.25	J		
2155	l	plastic	BIF	opt	sph	5.25	8.00	J		
2154	l	plastic	BIF	opt	sph	-12.00	-7.00	J		
2153	l	plastic	SVF	tran	pwr	5.25	20.00	H		
2152	l	plastic	SVF	tran	pwr	-20.00	-7.75	H		
2151	l	plastic	SVF	tran	cyl	4.25	8.00	H		
2150	l	plastic	SVF	tran	cyl	-8.00	-5.25	H		
2149	l	plastic	SVF	tran	sph	5.25	8.00	H		
2148	l	plastic	SVF	tran	sph	-12.00	-7.00	H		
2147	l	plastic	SVF	pol	pwr	5.25	20.00	F		
2146	l	plastic	SVF	pol	pwr	-20.00	-7.75	F		
2145	l	plastic	SVF	pol	cyl	4.25	8.00	F		
2144	l	plastic	SVF	pol	cyl	-6.00	-8.00	F		
2143	l	plastic	SVF	pol	sph	5.25	8.00	F		
2142	l	plastic	SVF	pol	sph	-12.00	-7.00	F		
2141	l	plastic	SVF	sun	pwr	5.25	20.00	D		
2140	l	plastic	SVF	sun	pwr	-20.00	-7.75	D		
2139	l	plastic	SVF	sun	cyl	4.25	8.00	D		
2138	l	plastic	SVF	sun	cyl	-6.00	-8.00	D		
2137	l	plastic	SVF	sun	sph	5.25	8.00	D		
2136	l	plastic	SVF	sun	sph	-12.00	-7.00	D		
2135	l	plastic	SVF	opt	pwr	5.25	20.00	B		
2134	l	plastic	SVF	opt	pwr	-20.00	-7.75	B		
2133	l	plastic	SVF	opt	cyl	4.25	8.00	B		
2132	l	plastic	SVF	opt	cyl	-8.00	-5.25	B		
2131	l	plastic	SVF	opt	sph	5.25	8.00	B		
2130	l	plastic	SVF	opt	sph	-12.00	-7.00	B		
2129	l	plastic	PROGE	tran	pwr	-6.75	3.00	RT		
2128	l	plastic	PROGE	tran	cyl	2.50	4.00	RT		
2127	l	plastic	PROGE	tran	cyl	-5.75	-2.50	RT		
2126	l	plastic	PROGE	tran	sph	2.75	5.00	RT		
2125	l	plastic	PROGE	tran	sph	-6.75	-5.00	RT		
2124	l	plastic	PROGE	sun	pwr	-6.75	3.00	RI		
2123	l	plastic	PROGE	sun	cyl	2.50	4.00	RI		
2122	l	plastic	PROGE	sun	cyl	-5.75	-2.50	RI		
2121	l	plastic	PROGE	sun	sph	2.75	5.00	RI		
2120	l	plastic	PROGE	sun	sph	-6.75	-5.00	RI		
2119	l	plastic	PROGE	opt	pwr	-6.75	3.00	R		
2118	l	plastic	PROGE	opt	cyl	2.50	4.00	R		
2117	l	plastic	PROGE	opt	cyl	-5.75	-2.50	R		
2116	l	plastic	PROGE	opt	sph	2.75	5.00	R		
2115	l	plastic	PROGE	opt	sph	-6.75	-5.00	R		
2114	l	plastic	PROG	tran	pwr	-6.75	3.00	O		
2113	l	plastic	PROG	tran	cyl	2.50	4.00	O		
2112	l	plastic	PROG	tran	cyl	-5.75	-2.50	O		
2111	l	plastic	PROG	tran	sph	2.75	5.00	O		
2110	l	plastic	PROG	tran	sph	-6.75	-5.00	O		
2109	l	plastic	PROG	pol	pwr	-6.75	3.00	N		
2108	l	plastic	PROG	pol	cyl	2.50	4.00	N		
2107	l	plastic	PROG	pol	cyl	-5.75	-2.50	N		
2105	l	plastic	PROG	pol	sph	-6.75	-5.00	N		
2106	l	plastic	PROG	pol	sph	2.75	5.00	N		
2104	l	plastic	PROG	sun	pwr	-6.75	3.00	KI		
2103	l	semi-rimless	PROGE	tran		0.00	0.00	ST	1	
2102	l	semi-rimless	PROGE	sun		0.00	0.00	S	1	
2101	l	semi-rimless	PROGE	opt		0.00	0.00	R	1	
2100	l	semi-rimless	PROG	tran		0.00	0.00	KT	1	
2099	l	semi-rimless	PROG	pol		0.00	0.00	KP	1	
2098	l	semi-rimless	PROG	sun		0.00	0.00	KC	1	
2097	l	semi-rimless	PROG	opt		0.00	0.00	K	1	
2096	l	semi-rimless	BIF	tran		0.00	0.00	WT	1	
2095	l	semi-rimless	BIF	pol		0.00	0.00	WP	1	
2094	l	semi-rimless	BIF	sun		0.00	0.00	JC	1	
2093	l	semi-rimless	BIF	opt		0.00	0.00	J	1	
2092	l	semi-rimless	SVF	tran		0.00	0.00	G	1	
2091	l	semi-rimless	SVF	pol		0.00	0.00	E	1	
2090	l	semi-rimless	SVF	sun		0.00	0.00	C	1	
2089	l	semi-rimless	SVF	opt		0.00	0.00	A	1	
2088	l	semi-rimless	PROGE	tran	pwr	5.25	20.00	RT		
2087	l	semi-rimless	PROGE	tran	pwr	-20.00	-7.75	RT		
2086	l	semi-rimless	PROGE	tran	cyl	4.25	8.00	RT		
2085	l	semi-rimless	PROGE	tran	cyl	-8.00	-5.25	RT		
2084	l	semi-rimless	PROGE	tran	sph	5.25	8.00	RT		
2083	l	semi-rimless	PROGE	tran	sph	-12.00	-7.00	RT		
2082	l	semi-rimless	PROGE	sun	pwr	5.25	20.00	RI		
2081	l	semi-rimless	PROGE	sun	pwr	-20.00	-7.75	RI		
2080	l	semi-rimless	PROGE	sun	cyl	4.25	8.00	RI		
2079	l	semi-rimless	PROGE	sun	cyl	-8.00	-5.25	RI		
2078	l	semi-rimless	PROGE	sun	sph	5.25	8.00	RI		
2077	l	semi-rimless	PROGE	sun	sph	-12.00	-7.00	RI		
2076	l	semi-rimless	PROGE	opt	pwr	5.25	20.00	R		
2075	l	semi-rimless	PROGE	opt	pwr	-20.00	-7.75	R		
2074	l	semi-rimless	PROGE	opt	cyl	4.25	8.00	R		
2073	l	semi-rimless	PROGE	opt	cyl	-8.00	-5.25	R		
2072	l	semi-rimless	PROGE	opt	sph	5.25	8.00	R		
2071	l	semi-rimless	PROGE	opt	sph	-12.00	-7.00	R		
2070	l	semi-rimless	PROG	tran	pwr	5.25	20.00	O		
2069	l	semi-rimless	PROG	tran	pwr	-20.00	-7.75	O		
2068	l	semi-rimless	PROG	tran	cyl	4.25	8.00	O		
2067	l	semi-rimless	PROG	tran	cyl	-8.00	-5.25	O		
2066	l	semi-rimless	PROG	tran	sph	5.25	8.00	O		
2065	l	semi-rimless	PROG	tran	sph	-12.00	-7.00	O		
2064	l	semi-rimless	PROG	pol	pwr	5.25	20.00	N		
2063	l	semi-rimless	PROG	pol	pwr	-20.00	-7.75	N		
2062	l	semi-rimless	PROG	pol	cyl	4.25	8.00	N		
2061	l	semi-rimless	PROG	pol	cyl	-8.00	-5.25	N		
2060	l	semi-rimless	PROG	pol	sph	5.25	8.00	N		
2059	l	semi-rimless	PROG	pol	sph	-12.00	-7.00	N		
2058	l	semi-rimless	PROG	sun	pwr	5.25	20.00	KI		
2057	l	semi-rimless	PROG	sun	pwr	-20.00	-7.75	KI		
2056	l	semi-rimless	PROG	sun	cyl	4.25	8.00	KI		
2055	l	semi-rimless	PROG	sun	cyl	-8.00	-5.25	KI		
2054	l	semi-rimless	PROG	sun	sph	5.25	8.00	KI		
2053	l	semi-rimless	PROG	sun	sph	-12.00	-7.00	KI		
2052	l	semi-rimless	PROG	opt	pwr	5.25	20.00	K		
2051	l	semi-rimless	PROG	opt	pwr	-20.00	-7.75	K		
2050	l	semi-rimless	PROG	opt	cyl	4.25	8.00	K		
2049	l	semi-rimless	PROG	opt	cyl	-8.00	-5.25	K		
2048	l	semi-rimless	PROG	opt	sph	5.25	8.00	K		
2047	l	semi-rimless	PROG	opt	sph	-12.00	-7.00	K		
2046	l	semi-rimless	BIF	pol	pwr	5.25	20.00	M		
2045	l	semi-rimless	BIF	pol	pwr	-20.00	-7.75	M		
2044	l	semi-rimless	BIF	pol	cyl	4.25	8.00	M		
2043	l	semi-rimless	BIF	pol	cyl	-8.00	-5.25	M		
2042	l	semi-rimless	BIF	pol	sph	5.25	8.00	M		
2041	l	semi-rimless	BIF	pol	sph	-12.00	-7.00	M		
2040	l	semi-rimless	BIF	sun	pwr	5.25	20.00	JI		
2039	l	semi-rimless	BIF	sun	pwr	-20.00	-7.75	JI		
2038	l	semi-rimless	BIF	sun	cyl	4.25	8.00	JI		
2037	l	semi-rimless	BIF	sun	cyl	-8.00	-5.25	JI		
2036	l	semi-rimless	BIF	sun	sph	5.25	8.00	JI		
2035	l	semi-rimless	BIF	sun	sph	-12.00	-7.00	JI		
2034	l	semi-rimless	BIF	opt	pwr	5.25	20.00	J		
2033	l	semi-rimless	BIF	opt	pwr	-20.00	-7.75	J		
2032	l	semi-rimless	BIF	opt	cyl	4.25	8.00	J		
2031	l	semi-rimless	BIF	opt	cyl	-8.00	-5.25	J		
2030	l	semi-rimless	BIF	opt	sph	5.25	8.00	J		
2029	l	semi-rimless	BIF	opt	sph	-12.00	-7.00	J		
2028	l	semi-rimless	SVF	tran	pwr	5.25	20.00	H		
2027	l	semi-rimless	SVF	tran	pwr	-20.00	-7.75	H		
2026	l	semi-rimless	SVF	tran	cyl	4.25	8.00	H		
2025	l	semi-rimless	SVF	tran	cyl	-8.00	-5.25	H		
2024	l	semi-rimless	SVF	tran	sph	5.25	8.00	H		
2023	l	semi-rimless	SVF	tran	sph	-12.00	-7.00	H		
2022	l	semi-rimless	SVF	pol	pwr	5.25	20.00	F		
2021	l	semi-rimless	SVF	pol	pwr	-20.00	-7.75	F		
2020	l	semi-rimless	SVF	pol	cyl	4.25	8.00	F		
2019	l	semi-rimless	SVF	pol	cyl	-6.00	-8.00	F		
2018	l	semi-rimless	SVF	pol	sph	5.25	8.00	F		
2017	l	semi-rimless	SVF	pol	sph	-12.00	-7.00	F		
2016	l	semi-rimless	SVF	sun	pwr	5.25	20.00	D		
2015	l	semi-rimless	SVF	sun	pwr	-20.00	-7.75	D		
2014	l	semi-rimless	SVF	sun	cyl	4.25	8.00	D		
2013	l	semi-rimless	SVF	sun	cyl	-6.00	-8.00	D		
2012	l	semi-rimless	SVF	sun	sph	5.25	8.00	D		
2011	l	semi-rimless	SVF	sun	sph	-12.00	-7.00	D		
2010	l	semi-rimless	SVF	opt	pwr	5.25	20.00	B		
2009	l	semi-rimless	SVF	opt	pwr	-20.00	-7.75	B		
2008	l	semi-rimless	SVF	opt	cyl	4.25	8.00	B		
2007	l	semi-rimless	SVF	opt	cyl	-8.00	-5.25	B		
2006	l	semi-rimless	SVF	opt	sph	5.25	8.00	B		
2005	l	semi-rimless	SVF	opt	sph	-12.00	-7.00	B		
2004	l	semi-rimless	PROGE	tran	pwr	-6.75	3.00	RT		
2003	l	semi-rimless	PROGE	tran	cyl	2.50	4.00	RT		
2002	l	semi-rimless	PROGE	tran	cyl	-5.75	-2.50	RT		
2001	l	semi-rimless	PROGE	tran	sph	2.75	5.00	RT		
2000	l	semi-rimless	PROGE	tran	sph	-6.75	-5.00	RT		
1999	l	semi-rimless	PROGE	sun	pwr	-6.75	3.00	RI		
1998	l	semi-rimless	PROGE	sun	cyl	2.50	4.00	RI		
1997	l	semi-rimless	PROGE	sun	cyl	-5.75	-2.50	RI		
1996	l	semi-rimless	PROGE	sun	sph	2.75	5.00	RI		
1995	l	semi-rimless	PROGE	sun	sph	-6.75	-5.00	RI		
1994	l	semi-rimless	PROGE	opt	pwr	-6.75	3.00	R		
1993	l	semi-rimless	PROGE	opt	cyl	2.50	4.00	R		
1992	l	semi-rimless	PROGE	opt	cyl	-5.75	-2.50	R		
1991	l	semi-rimless	PROGE	opt	sph	2.75	5.00	R		
1990	l	semi-rimless	PROGE	opt	sph	-6.75	-5.00	R		
1989	l	semi-rimless	PROG	tran	pwr	-6.75	3.00	O		
1988	l	semi-rimless	PROG	tran	cyl	2.50	4.00	O		
1987	l	semi-rimless	PROG	tran	cyl	-5.75	-2.50	O		
1986	l	semi-rimless	PROG	tran	sph	2.75	5.00	O		
1985	l	semi-rimless	PROG	tran	sph	-6.75	-5.00	O		
1984	l	semi-rimless	PROG	pol	pwr	-6.75	3.00	N		
1983	l	semi-rimless	PROG	pol	cyl	2.50	4.00	N		
1982	l	semi-rimless	PROG	pol	cyl	-5.75	-2.50	N		
1981	l	semi-rimless	PROG	pol	sph	2.75	5.00	N		
1980	l	semi-rimless	PROG	pol	sph	-6.75	-5.00	N		
1979	l	semi-rimless	PROG	sun	pwr	-6.75	3.00	KI		
1978	l	semi-rimless	PROG	sun	cyl	2.50	4.00	KI		
1977	l	semi-rimless	PROG	sun	cyl	-5.75	-2.50	KI		
1976	l	semi-rimless	PROG	sun	sph	2.75	5.00	KI		
1975	l	semi-rimless	PROG	sun	sph	-6.75	-5.00	KI		
1974	l	semi-rimless	PROG	opt	pwr	-6.75	3.00	K		
1973	l	semi-rimless	PROG	opt	cyl	2.50	4.00	K		
1972	l	semi-rimless	PROG	opt	cyl	-5.75	-2.50	K		
1971	l	Rimless	SVF	opt	sph	-12.00	-7.00	B		
1970	l	Rimless	SVF	opt	sph	5.25	8.00	B		
1969	l	Rimless	SVF	opt	cyl	-8.00	-5.25	B		
1968	l	Rimless	SVF	opt	cyl	4.25	8.00	B		
1967	l	Rimless	SVF	opt	pwr	-20.00	4.25	B		
1966	l	Rimless	SVF	sun	sph	-12.00	-7.00	D		
1965	l	Rimless	SVF	sun	sph	5.25	8.00	D		
1964	l	Rimless	SVF	sun	cyl	-8.00	-5.25	D		
1963	l	Rimless	SVF	sun	cyl	4.25	8.00	D		
1962	l	Rimless	SVF	sun	pwr	-20.00	4.25	D		
1961	l	Rimless	SVF	pol	sph	-12.00	-7.00	F		
1960	l	Rimless	SVF	pol	sph	5.25	8.00	F		
1959	l	Rimless	SVF	pol	cyl	-8.00	-5.25	F		
1958	l	Rimless	SVF	pol	cyl	4.25	8.00	F		
1957	l	Rimless	SVF	pol	pwr	-20.00	4.25	F		
1956	l	Rimless	SVF	tran	sph	-12.00	-7.00	H		
1955	l	Rimless	SVF	tran	sph	5.25	8.00	H		
1954	l	Rimless	SVF	tran	cyl	-8.00	-5.25	H		
1953	l	Rimless	SVF	tran	cyl	4.25	8.00	H		
1952	l	Rimless	SVF	tran	pwr	-20.00	4.25	H		
1951	l	Rimless	BIF	opt	sph	-12.00	-7.00	J		
1950	l	Rimless	BIF	opt	sph	5.25	8.00	J		
1949	l	Rimless	BIF	opt	cyl	-8.00	-5.25	J		
1948	l	Rimless	BIF	opt	cyl	4.25	8.00	J		
1947	l	Rimless	BIF	opt	pwr	-20.00	4.25	J		
170	s	metal	PROGE	tran		0.00	0.00	KTC	1	
169	s	metal	PROGE	sun		0.00	0.00	VC	1	
168	s	metal	PROGE	opt		0.00	0.00	V	1	
167	s	metal	PROG	tran		0.00	0.00	KT	1	
166	s	metal	PROG	pol		0.00	0.00	KP	1	
165	s	metal	PROG	sun		0.00	0.00	KC	1	
164	s	metal	PROG	opt		0.00	0.00	K	1	
163	s	metal	BIF	tran		0.00	0.00	WT	1	
162	s	metal	BIF	pol		0.00	0.00	WP	1	
161	s	metal	BIF	sun		0.00	0.00	JC	1	
160	s	metal	BIF	opt		0.00	0.00	J	1	
159	s	metal	SVF	tran		0.00	0.00	G	1	
158	s	metal	SVF	pol		0.00	0.00	E	1	
157	s	metal	SVF	sun		0.00	0.00	C	1	
156	s	metal	SVF	opt		0.00	0.00	A	1	
155	s	metal	PROGE	tran	pwr	5.25	20.00	RT		
154	s	metal	PROGE	tran	pwr	-20.00	-7.75	RT		
153	s	metal	PROGE	tran	cyl	4.25	8.00	RT		
152	s	metal	PROGE	tran	cyl	-8.00	-5.25	RT		
151	s	metal	PROGE	tran	sph	5.25	8.00	RT		
150	s	metal	PROGE	tran	sph	-12.00	-7.00	RT		
149	s	metal	PROGE	sun	pwr	5.25	20.00	VI		
148	s	metal	PROGE	sun	pwr	-20.00	-7.75	VI		
147	s	metal	PROGE	sun	cyl	4.25	8.00	VI		
146	s	metal	PROGE	sun	cyl	-8.00	-5.25	VI		
145	s	metal	PROGE	sun	sph	5.25	8.00	VI		
144	s	metal	PROGE	sun	sph	-12.00	-7.00	VI		
143	s	metal	PROGE	opt	pwr	5.25	20.00	V		
142	s	metal	PROGE	opt	pwr	-20.00	-7.75	V		
141	s	metal	PROGE	opt	cyl	4.25	8.00	V		
140	s	metal	PROGE	opt	cyl	-8.00	-5.25	V		
139	s	metal	PROGE	opt	sph	5.25	8.00	V		
138	s	metal	PROGE	opt	sph	-12.00	-7.00	V		
137	s	metal	PROG	tran	pwr	5.25	20.00	O		
136	s	metal	PROG	tran	pwr	-20.00	-7.75	O		
135	s	metal	PROG	tran	cyl	4.25	8.00	O		
134	s	metal	PROG	tran	cyl	-8.00	-5.25	O		
133	s	metal	PROG	tran	sph	5.25	8.00	O		
132	s	metal	PROG	tran	sph	-12.00	-7.00	O		
131	s	metal	PROG	pol	pwr	5.25	20.00	N		
130	s	metal	PROG	pol	pwr	-20.00	-7.75	N		
129	s	metal	PROG	pol	cyl	4.25	8.00	N		
128	s	metal	PROG	pol	cyl	-8.00	-5.25	N		
127	s	metal	PROG	pol	sph	5.25	8.00	N		
126	s	metal	PROG	pol	sph	-12.00	-7.00	N		
125	s	metal	PROG	sun	pwr	5.25	20.00	KI		
124	s	metal	PROG	sun	pwr	-20.00	-7.75	KI		
123	s	metal	PROG	sun	cyl	4.25	8.00	KI		
122	s	metal	PROG	sun	cyl	-8.00	-5.25	KI		
121	s	metal	PROG	sun	sph	5.25	8.00	KI		
120	s	metal	PROG	sun	sph	-12.00	-7.00	KI		
119	s	metal	PROG	opt	pwr	5.25	20.00	K		
118	s	metal	PROG	opt	pwr	-20.00	-7.75	K		
117	s	metal	PROG	opt	cyl	4.25	8.00	K		
116	s	metal	PROG	opt	cyl	-8.00	-5.25	K		
115	s	metal	PROG	opt	sph	5.25	8.00	K		
114	s	metal	PROG	opt	sph	-12.00	-7.00	K		
113	s	metal	BIF	pol	pwr	5.25	20.00	M		
112	s	metal	BIF	pol	pwr	-20.00	-7.75	M		
111	s	metal	BIF	pol	cyl	4.25	8.00	M		
110	s	metal	BIF	pol	cyl	-8.00	-5.25	M		
109	s	metal	BIF	pol	sph	5.25	8.00	M		
108	s	metal	BIF	pol	sph	-12.00	-7.00	M		
107	s	metal	BIF	sun	pwr	5.25	20.00	JI		
106	s	metal	BIF	sun	pwr	-20.00	-7.75	JI		
105	s	metal	BIF	sun	cyl	4.25	8.00	JI		
104	s	metal	BIF	sun	cyl	-8.00	-5.25	JI		
103	s	metal	BIF	sun	sph	5.25	8.00	JI		
102	s	metal	BIF	sun	sph	-12.00	-7.00	JI		
101	s	metal	BIF	opt	pwr	5.25	20.00	J		
100	s	metal	BIF	opt	pwr	-20.00	-7.75	J		
99	s	metal	BIF	opt	cyl	4.25	8.00	J		
98	s	metal	BIF	opt	cyl	-8.00	-5.25	J		
97	s	metal	BIF	opt	sph	5.25	8.00	J		
96	s	metal	BIF	opt	sph	-12.00	-7.00	J		
95	s	metal	SVF	tran	pwr	5.25	20.00	H		
94	s	metal	SVF	tran	pwr	-20.00	-7.75	H		
93	s	metal	SVF	tran	cyl	4.25	8.00	H		
92	s	metal	SVF	tran	cyl	-8.00	-5.25	H		
91	s	metal	SVF	tran	sph	5.25	8.00	H		
90	s	metal	SVF	tran	sph	-12.00	-7.00	H		
89	s	metal	SVF	pol	pwr	5.25	20.00	F		
88	s	metal	SVF	pol	pwr	-20.00	-7.75	F		
87	s	metal	SVF	pol	cyl	4.25	8.00	F		
86	s	metal	SVF	pol	cyl	-6.00	-8.00	F		
85	s	metal	SVF	pol	sph	5.25	8.00	F		
84	s	metal	SVF	pol	sph	-12.00	-7.00	F		
83	s	metal	SVF	sun	pwr	5.25	20.00	D		
82	s	metal	SVF	sun	pwr	-20.00	-7.75	D		
81	s	metal	SVF	sun	cyl	4.25	8.00	D		
80	s	metal	SVF	sun	cyl	-6.00	-8.00	D		
79	s	metal	SVF	sun	sph	5.25	8.00	D		
78	s	metal	SVF	sun	sph	-12.00	-7.00	D		
77	s	metal	SVF	opt	pwr	5.25	20.00	B		
76	s	metal	SVF	opt	pwr	-20.00	-7.75	B		
75	s	metal	SVF	opt	cyl	4.25	8.00	B		
74	s	metal	SVF	opt	cyl	-8.00	-5.25	B		
73	s	metal	SVF	opt	sph	5.25	8.00	B		
72	s	metal	SVF	opt	sph	-12.00	-7.00	B		
71	s	metal	PROGE	tran	pwr	-6.75	3.00	RT		
70	s	metal	PROGE	tran	cyl	2.50	4.00	RT		
69	s	metal	PROGE	tran	cyl	-5.75	-2.50	RT		
68	s	metal	PROGE	tran	sph	2.75	5.00	RT		
67	s	metal	PROGE	tran	sph	-6.75	-5.00	RT		
66	s	metal	PROGE	sun	pwr	-6.75	3.00	VI		
65	s	metal	PROGE	sun	cyl	2.50	4.00	VI		
64	s	metal	PROGE	sun	cyl	-5.75	-2.50	VI		
63	s	metal	PROGE	sun	sph	2.75	5.00	VI		
62	s	metal	PROGE	sun	sph	-6.75	-5.00	VI		
61	s	metal	PROGE	opt	pwr	-6.75	3.00	V		
60	s	metal	PROGE	opt	cyl	2.50	4.00	V		
59	s	metal	PROGE	opt	cyl	-5.75	-2.50	V		
58	s	metal	PROGE	opt	sph	2.75	5.00	V		
57	s	metal	PROGE	opt	sph	-6.75	-5.00	V		
56	s	metal	PROG	tran	pwr	-6.75	3.00	O		
55	s	metal	PROG	tran	cyl	2.50	4.00	O		
54	s	metal	PROG	tran	cyl	-5.75	-2.50	O		
53	s	metal	PROG	tran	sph	2.75	5.00	O		
52	s	metal	PROG	tran	sph	-6.75	-5.00	O		
51	s	metal	PROG	pol	pwr	-6.75	3.00	N		
50	s	metal	PROG	pol	cyl	2.50	4.00	N		
49	s	metal	PROG	pol	cyl	-5.75	-2.50	N		
48	s	metal	PROG	pol	sph	2.75	5.00	N		
47	s	metal	PROG	pol	sph	-6.75	-5.00	N		
46	s	metal	PROG	sun	pwr	-6.75	3.00	KI		
45	s	metal	PROG	sun	cyl	2.50	4.00	KI		
44	s	metal	PROG	sun	cyl	-5.75	-2.50	KI		
43	s	metal	PROG	sun	sph	2.75	5.00	KI		
42	s	metal	PROG	sun	sph	-6.75	-5.00	KI		
41	s	metal	PROG	opt	pwr	-6.75	3.00	K		
40	s	metal	PROG	opt	cyl	2.50	4.00	K		
39	s	metal	PROG	opt	cyl	-5.75	-2.50	K		
38	s	metal	PROG	opt	sph	2.75	5.00	K		
37	s	metal	PROG	opt	sph	-6.75	-5.00	K		
36	s	metal	BIF	pol	pwr	-6.75	3.00	M		
35	s	metal	BIF	pol	cyl	2.50	4.00	M		
34	s	metal	BIF	pol	cyl	-5.75	-2.50	M		
33	s	metal	BIF	pol	sph	2.75	5.00	M		
32	s	metal	BIF	pol	sph	-6.75	-5.00	M		
31	s	metal	BIF	sun	pwr	-6.75	3.00	JI		
30	s	metal	BIF	sun	cyl	2.50	4.00	JI		
29	s	metal	BIF	sun	cyl	-5.75	-2.50	JI		
28	s	metal	BIF	sun	sph	2.75	5.00	JI		
27	s	metal	BIF	sun	sph	-6.75	-5.00	JI		
26	s	metal	BIF	opt	pwr	-6.75	3.00	J		
25	s	metal	BIF	opt	cyl	2.50	4.00	J		
24	s	metal	BIF	opt	cyl	-5.75	-2.50	J		
23	s	metal	BIF	opt	sph	2.75	5.00	J		
22	s	metal	BIF	opt	sph	-6.75	-5.00	J		
21	s	metal	SVF	tran	pwr	-6.75	3.00	H		
20	s	metal	SVF	tran	cyl	2.50	4.00	H		
19	s	metal	SVF	tran	cyl	-5.75	-2.50	H		
18	s	metal	SVF	tran	sph	2.75	5.00	H		
17	s	metal	SVF	tran	sph	-6.75	-5.00	H		
16	s	metal	SVF	pol	pwr	-6.75	3.00	F		
15	s	metal	SVF	pol	cyl	2.50	4.00	F		
14	s	metal	SVF	pol	cyl	-5.75	-2.50	F		
13	s	metal	SVF	pol	sph	2.75	5.00	F		
12	s	metal	SVF	pol	sph	-6.75	-5.00	F		
11	s	metal	SVF	sun	pwr	-6.75	3.00	I		
10	s	metal	SVF	sun	cyl	2.50	4.00	I		
9	s	metal	SVF	sun	cyl	-5.75	-2.50	I		
8	s	metal	SVF	sun	sph	2.75	5.00	I		
7	s	metal	SVF	sun	sph	-6.75	-5.00	I		
6	s	metal	SVF	opt	pwr	-6.75	3.00	A		
5	s	metal	SVF	opt	cyl	2.50	4.00	A		
4	s	metal	SVF	opt	cyl	-5.75	-2.50	A		
3	s	metal	SVF	opt	sph	2.75	5.00	A		
2	s	metal	SVF	opt	sph	-6.75	-5.00	A		
1946	l	Rimless	BIF	sun	sph	-12.00	-7.00	JI		
1945	l	Rimless	BIF	sun	sph	5.25	8.00	JI		
1944	l	Rimless	BIF	sun	cyl	-8.00	-5.25	JI		
1943	l	Rimless	BIF	sun	cyl	4.25	8.00	JI		
1942	l	Rimless	BIF	sun	pwr	-20.00	4.25	JI		
1941	l	Rimless	BIF	pol	sph	-12.00	-7.00	M		
1940	l	Rimless	BIF	pol	sph	5.25	8.00	M		
1939	l	Rimless	BIF	pol	cyl	-8.00	-5.25	M		
1938	l	Rimless	BIF	pol	cyl	4.25	8.00	M		
1937	l	Rimless	BIF	pol	pwr	-20.00	4.25	M		
1936	l	Rimless	PROG	opt	sph	-12.00	-7.00	K		
1935	l	Rimless	PROG	opt	sph	5.25	8.00	K		
1934	l	Rimless	PROG	opt	cyl	-8.00	-5.25	K		
1933	l	Rimless	PROG	opt	cyl	4.25	8.00	K		
1932	l	Rimless	PROG	opt	pwr	-20.00	4.25	K		
1931	l	Rimless	PROG	sun	sph	-12.00	-7.00	KI		
1930	l	Rimless	PROG	sun	sph	5.25	8.00	KI		
1929	l	Rimless	PROG	sun	cyl	-8.00	-5.25	KI		
1928	l	Rimless	PROG	sun	cyl	4.25	8.00	KI		
1927	l	Rimless	PROG	sun	pwr	-20.00	4.25	KI		
1926	l	Rimless	PROG	pol	sph	-12.00	-7.00	N		
1925	l	Rimless	PROG	pol	sph	5.25	8.00	N		
1924	l	Rimless	PROG	pol	cyl	-8.00	-5.25	N		
1923	l	Rimless	PROG	pol	cyl	4.25	8.00	N		
1922	l	Rimless	PROG	pol	pwr	-20.00	4.25	N		
1921	l	Rimless	PROG	tran	sph	-12.00	-7.00	O		
1920	l	Rimless	PROG	tran	sph	5.25	8.00	O		
1919	l	Rimless	PROG	tran	cyl	-8.00	-5.25	O		
1918	l	Rimless	PROG	tran	cyl	4.25	8.00	O		
1917	l	Rimless	PROG	tran	pwr	-20.00	4.25	O		
1916	l	Rimless	PROGE	opt	sph	-12.00	-7.00	R		
1915	l	Rimless	PROGE	opt	sph	5.25	8.00	R		
1914	l	Rimless	PROGE	opt	cyl	-8.00	-5.25	R		
1913	l	Rimless	PROGE	opt	cyl	4.25	8.00	R		
1912	l	Rimless	PROGE	opt	pwr	-20.00	4.25	R		
1911	l	Rimless	PROGE	sun	sph	-12.00	-7.00	RI		
1910	l	Rimless	PROGE	sun	sph	5.25	8.00	RI		
1909	l	Rimless	PROGE	sun	cyl	-8.00	-5.25	RI		
1908	l	Rimless	PROGE	sun	cyl	4.25	8.00	RI		
1907	l	Rimless	PROGE	sun	pwr	-20.00	4.25	RI		
1906	l	Rimless	PROGE	tran	sph	-12.00	-7.00	RT		
1905	l	Rimless	PROGE	tran	sph	5.25	8.00	RT		
1904	l	Rimless	PROGE	tran	cyl	-8.00	-5.25	RT		
1903	l	Rimless	PROGE	tran	cyl	4.25	8.00	RT		
1902	l	Rimless	PROGE	tran	pwr	-20.00	4.25	RT		
1901	l	Rimless	SVF	opt		0.00	0.00	A	1	
1186	s	Rimless	PROGE	sun	pwr	20.00	5.25	VI		
1187	s	Rimless	PROGE	opt	pwr	20.00	5.25	V		
1188	s	Rimless	PROG	tran	pwr	20.00	5.25	O		
1189	s	Rimless	PROG	pol	pwr	20.00	5.25	N		
1190	s	Rimless	PROG	sun	pwr	20.00	5.25	KI		
1191	s	Rimless	PROG	opt	pwr	20.00	5.25	K		
1192	s	Rimless	BIF	pol	pwr	20.00	5.25	M		
1193	s	Rimless	BIF	sun	pwr	20.00	5.25	JI		
1194	s	Rimless	BIF	opt	pwr	20.00	5.25	J		
1195	s	Rimless	SVF	tran	pwr	20.00	5.25	H		
1196	s	Rimless	SVF	pol	pwr	20.00	5.25	F		
1197	s	Rimless	SVF	sun	pwr	20.00	5.25	D		
1198	s	Rimless	SVF	opt	pwr	20.00	5.25	B		
1900	l	Rimless	SVF	sun		0.00	0.00	I	1	
1899	l	Rimless	SVF	pol		0.00	0.00	F	1	
1898	l	Rimless	SVF	tran		0.00	0.00	H	1	
1897	l	Rimless	BIF	opt		0.00	0.00	J	1	
1896	l	Rimless	BIF	sun		0.00	0.00	JI	1	
1895	l	Rimless	BIF	pol		0.00	0.00	M	1	
1894	l	Rimless	PROG	opt		0.00	0.00	K	1	
1893	l	Rimless	PROG	sun		0.00	0.00	KI	1	
1892	l	Rimless	PROG	pol		0.00	0.00	N	1	
1891	l	Rimless	PROG	tran		0.00	0.00	O	1	
1890	l	Rimless	PROGE	opt		0.00	0.00	R	1	
1889	l	Rimless	PROGE	sun		0.00	0.00	RI	1	
1888	l	Rimless	PROGE	tran		0.00	0.00	KTC	1	
1506	s	plastic	PROG	sun	cyl	2.50	4.00	KI		
1507	s	plastic	PROG	sun	cyl	-5.75	-2.50	KI		
1508	s	plastic	PROG	sun	sph	2.75	5.00	KI		
1509	s	plastic	PROG	sun	sph	-6.75	-5.00	KI		
1510	s	plastic	PROG	opt	pwr	-6.75	3.00	K		
1511	s	plastic	PROG	opt	cyl	2.50	4.00	K		
1512	s	plastic	PROG	opt	cyl	-5.75	-2.50	K		
1513	s	plastic	PROG	opt	sph	2.75	5.00	K		
1514	s	plastic	PROG	opt	sph	-6.75	-5.00	K		
1515	s	plastic	BIF	pol	pwr	-6.75	3.00	M		
1516	s	plastic	BIF	pol	cyl	2.50	4.00	M		
1517	s	plastic	BIF	pol	cyl	-5.75	-2.50	M		
1518	s	plastic	BIF	pol	sph	2.75	5.00	M		
1519	s	plastic	BIF	pol	sph	-6.75	-5.00	M		
1520	s	plastic	BIF	sun	pwr	-6.75	3.00	JI		
1521	s	plastic	BIF	sun	cyl	2.50	4.00	JI		
1522	s	plastic	BIF	sun	cyl	-5.75	-2.50	JI		
1523	s	plastic	BIF	sun	sph	2.75	5.00	JI		
1524	s	plastic	BIF	sun	sph	-6.75	-5.00	JI		
1525	s	plastic	BIF	opt	pwr	-6.75	3.00	J		
1526	s	plastic	BIF	opt	cyl	2.50	4.00	J		
1527	s	plastic	BIF	opt	cyl	-5.75	-2.50	J		
1528	s	plastic	BIF	opt	sph	2.75	5.00	J		
1529	s	plastic	BIF	opt	sph	-6.75	-5.00	J		
1530	s	plastic	SVF	tran	pwr	-6.75	3.00	H		
1531	s	plastic	SVF	tran	cyl	2.50	4.00	H		
1532	s	plastic	SVF	tran	cyl	-5.75	-2.50	H		
1533	s	plastic	SVF	tran	sph	2.75	5.00	H		
1534	s	plastic	SVF	tran	sph	-6.75	-5.00	H		
1535	s	plastic	SVF	pol	pwr	-6.75	3.00	F		
1536	s	plastic	SVF	pol	cyl	2.50	4.00	F		
1537	s	plastic	SVF	pol	cyl	-5.75	-2.50	F		
1538	s	plastic	SVF	pol	sph	2.75	5.00	F		
1539	s	plastic	SVF	pol	sph	-6.75	-5.00	F		
1540	s	plastic	SVF	sun	pwr	-6.75	3.00	I		
1541	s	plastic	SVF	sun	cyl	2.50	4.00	I		
1542	s	plastic	SVF	sun	cyl	-5.75	-2.50	I		
1543	s	plastic	SVF	sun	sph	2.75	5.00	I		
1544	s	plastic	SVF	sun	sph	-6.75	-5.00	I		
1545	s	plastic	SVF	opt	pwr	-6.75	3.00	A		
1546	s	plastic	SVF	opt	cyl	2.50	4.00	A		
1547	s	plastic	SVF	opt	cyl	-5.75	-2.50	A		
1548	s	plastic	SVF	opt	sph	2.75	5.00	A		
1549	s	plastic	SVF	opt	sph	-6.75	-5.00	A		
1851	s	semi-rimless	PROG	opt	sph	2.75	5.00	K		
1852	s	semi-rimless	PROG	opt	sph	-6.75	-5.00	K		
1853	s	semi-rimless	BIF	pol	pwr	-6.75	3.00	M		
1854	s	semi-rimless	BIF	pol	cyl	2.50	4.00	M		
1855	s	semi-rimless	BIF	pol	cyl	-5.75	-2.50	M		
1856	s	semi-rimless	BIF	pol	sph	2.75	5.00	M		
1857	s	semi-rimless	BIF	pol	sph	-6.75	-5.00	M		
1858	s	semi-rimless	BIF	sun	pwr	-6.75	3.00	JI		
1859	s	semi-rimless	BIF	sun	cyl	2.50	4.00	JI		
1860	s	semi-rimless	BIF	sun	cyl	-5.75	-2.50	JI		
1861	s	semi-rimless	BIF	sun	sph	2.75	5.00	JI		
1862	s	semi-rimless	BIF	sun	sph	-6.75	-5.00	JI		
1863	s	semi-rimless	BIF	opt	pwr	-6.75	3.00	J		
1864	s	semi-rimless	BIF	opt	cyl	2.50	4.00	J		
1865	s	semi-rimless	BIF	opt	cyl	-5.75	-2.50	J		
1866	s	semi-rimless	BIF	opt	sph	2.75	5.00	J		
1867	s	semi-rimless	BIF	opt	sph	-6.75	-5.00	J		
1868	s	semi-rimless	SVF	tran	pwr	-6.75	3.00	H		
1869	s	semi-rimless	SVF	tran	cyl	2.50	4.00	H		
1870	s	semi-rimless	SVF	tran	cyl	-5.75	-2.50	H		
1871	s	semi-rimless	SVF	tran	sph	2.75	5.00	H		
1872	s	semi-rimless	SVF	tran	sph	-6.75	-5.00	H		
1873	s	semi-rimless	SVF	pol	pwr	-6.75	3.00	F		
1874	s	semi-rimless	SVF	pol	cyl	2.50	4.00	F		
1875	s	semi-rimless	SVF	pol	cyl	-5.75	-2.50	F		
1876	s	semi-rimless	SVF	pol	sph	2.75	5.00	F		
1877	s	semi-rimless	SVF	pol	sph	-6.75	-5.00	F		
1878	s	semi-rimless	SVF	sun	pwr	-6.75	3.00	I		
1879	s	semi-rimless	SVF	sun	cyl	2.50	4.00	I		
1880	s	semi-rimless	SVF	sun	cyl	-5.75	-2.50	I		
1881	s	semi-rimless	SVF	sun	sph	2.75	5.00	I		
1882	s	semi-rimless	SVF	sun	sph	-6.75	-5.00	I		
1883	s	semi-rimless	SVF	opt	pwr	-6.75	3.00	A		
1884	s	semi-rimless	SVF	opt	cyl	2.50	4.00	A		
1885	s	semi-rimless	SVF	opt	cyl	-5.75	-2.50	A		
1886	s	semi-rimless	SVF	opt	sph	2.75	5.00	A		
1887	s	semi-rimless	SVF	opt	sph	-6.75	-5.00	A		
2378	l	metal	SVF	tran	pwr	-6.75	3.00	H		
2379	l	metal	SVF	tran	cyl	2.50	4.00	H		
2380	l	metal	SVF	tran	cyl	-5.75	-2.50	H		
2381	l	metal	SVF	tran	sph	2.75	5.00	H		
2382	l	metal	SVF	tran	sph	-6.75	-5.00	H		
2383	l	metal	SVF	pol	pwr	-6.75	3.00	F		
2384	l	metal	SVF	pol	cyl	2.50	4.00	F		
2385	l	metal	SVF	pol	cyl	-5.75	-2.50	F		
2386	l	metal	SVF	pol	sph	2.75	5.00	F		
2387	l	metal	SVF	pol	sph	-6.75	-5.00	F		
2388	l	metal	SVF	sun	pwr	-6.75	3.00	I		
2389	l	metal	SVF	sun	cyl	2.50	4.00	I		
2390	l	metal	SVF	sun	cyl	-5.75	-2.50	I		
2391	l	metal	SVF	sun	sph	2.75	5.00	I		
2392	l	metal	SVF	sun	sph	-6.75	-5.00	I		
2393	l	metal	SVF	opt	pwr	-6.75	3.00	A		
2394	l	metal	SVF	opt	cyl	2.50	4.00	A		
2395	l	metal	SVF	opt	cyl	-5.75	-2.50	A		
2396	l	metal	SVF	opt	sph	2.75	5.00	A		
2397	l	metal	SVF	opt	sph	-6.75	-5.00	A		
2398	l	Rimless	PROGE	sun	pwr	20.00	5.25	RI		
2399	l	Rimless	PROGE	opt	pwr	20.00	5.25	R		
2400	l	Rimless	PROG	tran	pwr	20.00	5.25	O		
2401	l	Rimless	PROG	pol	pwr	20.00	5.25	N		
2402	l	Rimless	PROG	sun	pwr	20.00	5.25	KI		
2403	l	Rimless	PROG	opt	pwr	20.00	5.25	K		
2404	l	Rimless	BIF	pol	pwr	20.00	5.25	M		
2405	l	Rimless	BIF	sun	pwr	20.00	5.25	JI		
2406	l	Rimless	BIF	opt	pwr	20.00	5.25	J		
2407	l	Rimless	SVF	tran	pwr	20.00	5.25	H		
2408	l	Rimless	SVF	pol	pwr	20.00	5.25	F		
2409	l	Rimless	SVF	sun	pwr	20.00	5.25	D		
2410	l	Rimless	SVF	opt	pwr	20.00	5.25	B		
2411	l	plastic	PROG	sun	cyl	2.50	4.00	KI		
2412	l	plastic	PROG	sun	cyl	-5.75	-2.50	KI		
2413	l	plastic	PROG	sun	sph	2.75	5.00	KI		
2414	l	plastic	PROG	sun	sph	-6.75	-5.00	KI		
2415	l	plastic	PROG	opt	pwr	-6.75	3.00	K		
2416	l	plastic	PROG	opt	cyl	2.50	4.00	K		
2417	l	plastic	PROG	opt	cyl	-5.75	-2.50	K		
2418	l	plastic	PROG	opt	sph	2.75	5.00	K		
2419	l	plastic	PROG	opt	sph	-6.75	-5.00	K		
2420	l	plastic	BIF	pol	pwr	-6.75	3.00	M		
2421	l	plastic	BIF	pol	cyl	2.50	4.00	M		
2422	l	plastic	BIF	pol	cyl	-5.75	-2.50	M		
2423	l	plastic	BIF	pol	sph	2.75	5.00	M		
2424	l	plastic	BIF	pol	sph	-6.75	-5.00	M		
2425	l	plastic	BIF	sun	pwr	-6.75	3.00	JI		
2426	l	plastic	BIF	sun	cyl	2.50	4.00	JI		
2427	l	plastic	BIF	sun	cyl	-5.75	-2.50	JI		
2428	l	plastic	BIF	sun	sph	2.75	5.00	JI		
2429	l	plastic	BIF	sun	sph	-6.75	-5.00	JI		
2430	l	plastic	BIF	opt	pwr	-6.75	3.00	J		
2431	l	plastic	BIF	opt	cyl	2.50	4.00	J		
2432	l	plastic	BIF	opt	cyl	-5.75	-2.50	J		
2433	l	plastic	BIF	opt	sph	2.75	5.00	J		
2434	l	plastic	BIF	opt	sph	-6.75	-5.00	J		
2435	l	plastic	SVF	tran	pwr	-6.75	3.00	H		
2436	l	plastic	SVF	tran	cyl	2.50	4.00	H		
2437	l	plastic	SVF	tran	cyl	-5.75	-2.50	H		
2438	l	plastic	SVF	tran	sph	2.75	5.00	H		
2439	l	plastic	SVF	tran	sph	-6.75	-5.00	H		
2440	l	plastic	SVF	pol	pwr	-6.75	3.00	F		
2441	l	plastic	SVF	pol	cyl	2.50	4.00	F		
2442	l	plastic	SVF	pol	cyl	-5.75	-2.50	F		
2443	l	plastic	SVF	pol	sph	2.75	5.00	F		
2444	l	plastic	SVF	pol	sph	-6.75	-5.00	F		
2445	l	plastic	SVF	sun	pwr	-6.75	3.00	I		
2446	l	plastic	SVF	sun	cyl	2.50	4.00	I		
2447	l	plastic	SVF	sun	cyl	-5.75	-2.50	I		
2448	l	plastic	SVF	sun	sph	2.75	5.00	I		
2449	l	plastic	SVF	sun	sph	-6.75	-5.00	I		
2450	l	plastic	SVF	opt	pwr	-6.75	3.00	A		
2451	l	plastic	SVF	opt	cyl	2.50	4.00	A		
2452	l	plastic	SVF	opt	cyl	-5.75	-2.50	A		
2453	l	plastic	SVF	opt	sph	2.75	5.00	A		
2454	l	plastic	SVF	opt	sph	-6.75	-5.00	A		
2455	l	semi-rimless	PROG	opt	sph	2.75	5.00	K		
2456	l	semi-rimless	PROG	opt	sph	-6.75	-5.00	K		
2457	l	semi-rimless	BIF	pol	pwr	-6.75	3.00	M		
2458	l	semi-rimless	BIF	pol	cyl	2.50	4.00	M		
2459	l	semi-rimless	BIF	pol	cyl	-5.75	-2.50	M		
2460	l	semi-rimless	BIF	pol	sph	2.75	5.00	M		
2461	l	semi-rimless	BIF	pol	sph	-6.75	-5.00	M		
2462	l	semi-rimless	BIF	sun	pwr	-6.75	3.00	JI		
2463	l	semi-rimless	BIF	sun	cyl	2.50	4.00	JI		
2464	l	semi-rimless	BIF	sun	cyl	-5.75	-2.50	JI		
2465	l	semi-rimless	BIF	sun	sph	2.75	5.00	JI		
2466	l	semi-rimless	BIF	sun	sph	-6.75	-5.00	JI		
2467	l	semi-rimless	BIF	opt	pwr	-6.75	3.00	J		
2468	l	semi-rimless	BIF	opt	cyl	2.50	4.00	J		
2469	l	semi-rimless	BIF	opt	cyl	-5.75	-2.50	J		
2470	l	semi-rimless	BIF	opt	sph	2.75	5.00	J		
2471	l	semi-rimless	BIF	opt	sph	-6.75	-5.00	J		
2472	l	semi-rimless	SVF	tran	pwr	-6.75	3.00	H		
2473	l	semi-rimless	SVF	tran	cyl	2.50	4.00	H		
2474	l	semi-rimless	SVF	tran	cyl	-5.75	-2.50	H		
2475	l	semi-rimless	SVF	tran	sph	2.75	5.00	H		
2476	l	semi-rimless	SVF	tran	sph	-6.75	-5.00	H		
2477	l	semi-rimless	SVF	pol	pwr	-6.75	3.00	F		
2478	l	semi-rimless	SVF	pol	cyl	2.50	4.00	F		
2479	l	semi-rimless	SVF	pol	cyl	-5.75	-2.50	F		
2480	l	semi-rimless	SVF	pol	sph	2.75	5.00	F		
2481	l	semi-rimless	SVF	pol	sph	-6.75	-5.00	F		
2482	l	semi-rimless	SVF	sun	pwr	-6.75	3.00	I		
2483	l	semi-rimless	SVF	sun	cyl	2.50	4.00	I		
2484	l	semi-rimless	SVF	sun	cyl	-5.75	-2.50	I		
2485	l	semi-rimless	SVF	sun	sph	2.75	5.00	I		
2486	l	semi-rimless	SVF	sun	sph	-6.75	-5.00	I		
2487	l	semi-rimless	SVF	opt	pwr	-6.75	3.00	A		
2488	l	semi-rimless	SVF	opt	cyl	2.50	4.00	A		
2489	l	semi-rimless	SVF	opt	cyl	-5.75	-2.50	A		
2490	l	semi-rimless	SVF	opt	sph	2.75	5.00	A		
2491	l	semi-rimless	SVF	opt	sph	-6.75	-5.00	A		
2492			SVF	opt		0.00	0.00	A		1
2493			SVF	pol		0.00	0.00	F		1
2494			SVF	sun		0.00	0.00	I		1
2495			SVF	tran		0.00	0.00	H		1
2496			BIF	opt		0.00	0.00	J		1
2497			BIF	sun		0.00	0.00	JI		1
2498			BIF	pol		0.00	0.00	M		1
2499			PROGE	opt		0.00	0.00	R		1
2500			PROGE	sun		0.00	0.00	RI		1
